<?xml version="1.0" encoding="UTF-8" standalone="no"?>
<svg width="76px" height="76px" viewBox="0 0 76 76" version="1.1" xmlns="http://www.w3.org/2000/svg" xmlns:xlink="http://www.w3.org/1999/xlink" xmlns:sketch="http://www.bohemiancoding.com/sketch/ns">
    <!-- Generator: Sketch 3.4.4 (17249) - http://www.bohemiancoding.com/sketch -->
    <title>Orders Icon</title>
    <desc>Created with Sketch.</desc>
    <defs></defs>
    <g id="Icons" stroke="none" stroke-width="1" fill="none" fill-rule="evenodd" sketch:type="MSPage">
        <g id="Orders-Icon" sketch:type="MSArtboardGroup">
            <path d="M38.5,76 C59.2106781,76 76,59.2106781 76,38.5 C76,17.7893219 59.2106781,1 38.5,1 C17.7893219,1 1,17.7893219 1,38.5 C1,59.2106781 17.7893219,76 38.5,76 Z" id="Oval-11" fill="#00447f" sketch:type="MSShapeGroup"></path>
            <g id="Line-+-Line-+-Line" sketch:type="MSLayerGroup" transform="translate(13.000000, 32.000000)" fill="#FFFFFF">
                <path d="M10.3084444,0.764705882 L4.76302962,0.764705882 L3.76302962,0.764705882 L3.76302962,2.76470588 L4.76302962,2.76470588 L10.3084444,2.76470588 L11.3084444,2.76470588 L11.3084444,0.764705882 L10.3084444,0.764705882 L10.3084444,0.764705882 Z" id="Shape" sketch:type="MSShapeGroup"></path>
                <path d="M10.3084444,8.29411765 L4.76302962,8.29411765 L3.76302962,8.29411765 L3.76302962,10.2941176 L4.76302962,10.2941176 L10.3084444,10.2941176 L11.3084444,10.2941176 L11.3084444,8.29411765 L10.3084444,8.29411765 L10.3084444,8.29411765 Z" id="Shape" sketch:type="MSShapeGroup"></path>
                <path d="M10.3084444,4.52941176 L1.55828608,4.52941176 L0.558286083,4.52941176 L0.558286083,6.52941176 L1.55828608,6.52941176 L10.3084444,6.52941176 L11.3084444,6.52941176 L11.3084444,4.52941176 L10.3084444,4.52941176 L10.3084444,4.52941176 Z" id="Shape" sketch:type="MSShapeGroup"></path>
            </g>
            <path d="M58.848029,45.3735057 L64.7455546,27.7323429 C65.0414936,26.8842729 64.8174955,26.3744505 64.5787823,26.037837 C63.9672839,25.1766946 62.7099518,25.1685244 62.4663334,25.1685244 L29.1364031,25.1619882 L28.246951,20.944515 C28.0066027,19.9493808 27.297003,19 25.8663584,19 L16.4993155,19 C15.5281122,19 15,19.4542648 15,20.3611605 L15,22.7958893 C15,23.6733721 15.5264772,23.9021386 16.533651,23.9021386 L24.442254,23.9021386 L30.4951067,49.5844428 C29.5337135,50.6024536 29.0105064,52.0861675 29.0105064,53.4702047 C29.0105064,56.5160668 31.4368795,59.3233582 34.5368819,59.3233582 C37.4635719,59.3233582 39.6577718,56.5830627 40.0142067,54.9490165 L51.8027178,54.9490165 C52.1591526,56.5830627 53.9364219,59.38872 57.2784076,59.38872 C60.3244542,59.38872 62.801513,56.7513694 62.801513,53.7104094 C62.801513,50.6857899 60.9621129,48.0043201 57.309473,48.0043201 C55.7905372,48.0043201 53.9887426,48.8213432 53.1516112,50.0468779 L38.6669483,50.0468779 C37.6156289,48.4128317 36.1800793,47.9062773 34.7281795,47.8490857 L34.5270718,46.7787855 L56.5655378,46.7787855 C58.2267205,46.7787855 58.553725,46.1741884 58.848029,45.3735057 L58.848029,45.3735057 Z M57.3192831,51.5681749 C58.4654338,51.5681749 59.3957615,52.4979472 59.3957615,53.6434136 C59.3957615,54.7888799 58.4654338,55.7186522 57.3192831,55.7186522 C56.1731325,55.7186522 55.2411697,54.790514 55.2411697,53.6434136 C55.2428047,52.4979472 56.1731325,51.5681749 57.3192831,51.5681749 L57.3192831,51.5681749 Z M36.5904699,53.6434136 C36.5904699,54.8019523 35.6486971,55.744797 34.4927363,55.744797 C33.3335055,55.7415289 32.3900976,54.8019523 32.3900976,53.6434136 C32.3900976,52.4848748 33.3335055,51.5420301 34.4927363,51.5420301 C35.6486971,51.5420301 36.5904699,52.4848748 36.5904699,53.6434136 L36.5904699,53.6434136 Z" id="Shape" fill="#FFFFFF" sketch:type="MSShapeGroup"></path>
        </g>
    </g>
</svg>